%YAML 1.1
%TAG !u! tag:unity3d.com,2011:
--- !u!1 &7748978483728750828
GameObject:
  m_ObjectHideFlags: 0
  m_CorrespondingSourceObject: {fileID: 0}
  m_PrefabInstance: {fileID: 0}
  m_PrefabAsset: {fileID: 0}
  serializedVersion: 6
  m_Component:
  - component: {fileID: 7748978483728750830}
  - component: {fileID: 7748978483728750832}
  m_Layer: 0
  m_Name: small_bullet
  m_TagString: Untagged
  m_Icon: {fileID: 0}
  m_NavMeshLayer: 0
  m_StaticEditorFlags: 0
  m_IsActive: 1
--- !u!4 &7748978483728750830
Transform:
  m_ObjectHideFlags: 0
  m_CorrespondingSourceObject: {fileID: 0}
  m_PrefabInstance: {fileID: 0}
  m_PrefabAsset: {fileID: 0}
  m_GameObject: {fileID: 7748978483728750828}
  m_LocalRotation: {x: 0, y: 0, z: 0, w: 1}
  m_LocalPosition: {x: 0, y: 0, z: 0}
  m_LocalScale: {x: 1, y: 1, z: 1}
  m_Children:
  - {fileID: 4918239067624370315}
  m_Father: {fileID: 0}
  m_RootOrder: 0
  m_LocalEulerAnglesHint: {x: 0, y: 0, z: 0}
--- !u!114 &7748978483728750832
MonoBehaviour:
  m_ObjectHideFlags: 0
  m_CorrespondingSourceObject: {fileID: 0}
  m_PrefabInstance: {fileID: 0}
  m_PrefabAsset: {fileID: 0}
  m_GameObject: {fileID: 7748978483728750828}
  m_Enabled: 1
  m_EditorHideFlags: 0
  m_Script: {fileID: 11500000, guid: e674f9a3537518445b22e6530816beb0, type: 3}
  m_Name: 
  m_EditorClassIdentifier: 
  speed: 40
  reactDistance: 0.1
  maxDistance: 20
--- !u!1001 &4922413049023562681
PrefabInstance:
  m_ObjectHideFlags: 0
  serializedVersion: 2
  m_Modification:
    m_TransformParent: {fileID: 7748978483728750830}
    m_Modifications:
    - target: {fileID: 1003485616670832, guid: d3e696857b546c74494ecb88684f94e5, type: 3}
      propertyPath: m_Name
      value: BulletBody
      objectReference: {fileID: 0}
    - target: {fileID: 4209795057775410, guid: d3e696857b546c74494ecb88684f94e5, type: 3}
      propertyPath: m_RootOrder
      value: 0
      objectReference: {fileID: 0}
    - target: {fileID: 4209795057775410, guid: d3e696857b546c74494ecb88684f94e5, type: 3}
      propertyPath: m_LocalPosition.x
      value: -0
      objectReference: {fileID: 0}
    - target: {fileID: 4209795057775410, guid: d3e696857b546c74494ecb88684f94e5, type: 3}
      propertyPath: m_LocalPosition.y
      value: 0
      objectReference: {fileID: 0}
    - target: {fileID: 4209795057775410, guid: d3e696857b546c74494ecb88684f94e5, type: 3}
      propertyPath: m_LocalPosition.z
      value: 0
      objectReference: {fileID: 0}
    - target: {fileID: 4209795057775410, guid: d3e696857b546c74494ecb88684f94e5, type: 3}
      propertyPath: m_LocalRotation.w
      value: 1
      objectReference: {fileID: 0}
    - target: {fileID: 4209795057775410, guid: d3e696857b546c74494ecb88684f94e5, type: 3}
      propertyPath: m_LocalRotation.x
      value: 0
      objectReference: {fileID: 0}
    - target: {fileID: 4209795057775410, guid: d3e696857b546c74494ecb88684f94e5, type: 3}
      propertyPath: m_LocalRotation.y
      value: -0
      objectReference: {fileID: 0}
    - target: {fileID: 4209795057775410, guid: d3e696857b546c74494ecb88684f94e5, type: 3}
      propertyPath: m_LocalRotation.z
      value: -0
      objectReference: {fileID: 0}
    - target: {fileID: 4209795057775410, guid: d3e696857b546c74494ecb88684f94e5, type: 3}
      propertyPath: m_LocalEulerAnglesHint.x
      value: 0
      objectReference: {fileID: 0}
    - target: {fileID: 4209795057775410, guid: d3e696857b546c74494ecb88684f94e5, type: 3}
      propertyPath: m_LocalEulerAnglesHint.y
      value: 0
      objectReference: {fileID: 0}
    - target: {fileID: 4209795057775410, guid: d3e696857b546c74494ecb88684f94e5, type: 3}
      propertyPath: m_LocalEulerAnglesHint.z
      value: 0
      objectReference: {fileID: 0}
    m_RemovedComponents: []
  m_SourcePrefab: {fileID: 100100000, guid: d3e696857b546c74494ecb88684f94e5, type: 3}
--- !u!4 &4918239067624370315 stripped
Transform:
  m_CorrespondingSourceObject: {fileID: 4209795057775410, guid: d3e696857b546c74494ecb88684f94e5,
    type: 3}
  m_PrefabInstance: {fileID: 4922413049023562681}
  m_PrefabAsset: {fileID: 0}
